{
  "images" : [
    {
      "idiom" : "ipad"
    },
    {
      "idiom" : "ipad",
      "filename" : "Launch Imagex1-portrait.png",
      "scale" : "1x"
    },
    {
      "idiom" : "ipad",
      "filename" : "Launch Imagex2-portrait.png",
      "scale" : "2x"
    }
  ],
  "info" : {
    "version" : 1,
    "author" : "xcode"
  }
}